Project 1: Exploratory Data Analysis
…
##   disMICcip distMICazm distMICaxo
## 1         9          5          9

# standard deviation for MIC values for each antibiotic
s_res %>% summarize(sdMICcip = sd(CIP.Rslt), sdMICazm = sd(AZM.Rslt), 
    sdMICaxo = sd(AXO.Rslt))

##    sdMICcip sdMICazm sdMICaxo
## 1 0.1580069 1.505162 4.190648

# now do the same, but when grouped by species and serotype
s_res %>% group_by(Species, Serotype) %>% summarize(meanMICcip = mean(CIP.Rslt), 
    meanMICazm = mean(AZM.Rslt), meanMICaxo = mean(AXO.Rslt))

## # A tibble: 108 x 5
## # Groups:   Species [1]
##    Species  Serotype     meanMICcip meanMICazm meanMICaxo
##    <fct>    <fct>             <dbl>      <dbl>      <dbl>
##  1 enterica Adelaide         0.112        3.6        0.25
##  2 enterica Agbeni           0.015        3.33       0.25
##  3 enterica Agona            0.0591       4.36       1.68
##  4 enterica Albany           0.015        4          0.25
##  5 enterica Albert           0.5          8          0.25
##  6 enterica Altona           0.015        4          0.25
##  7 enterica Anatum           0.128        3.56       6.37
##  8 enterica Arechavaleta     0.015        3          0.25
##  9 enterica Baildon          0.0500       2.67       0.25
## 10 enterica Bareilly         0.0444       4.47       0.25
## # … with 98 more rows

# minimum when grouped
s_res %>% group_by(Species, Serotype) %>% summarize(minMICcip = min(CIP.Rslt), 
    minMICazm = min(AZM.Rslt), minMICaxo = min(AXO.Rslt))

## # A tibble: 108 x 5
## # Groups:   Species [1]
##    Species  Serotype     minMICcip minMICazm minMICaxo
##    <fct>    <fct>            <dbl>     <dbl>     <dbl>
##  1 enterica Adelaide         0.015      2         0.25
##  2 enterica Agbeni           0.015      2         0.25
##  3 enterica Agona            0.015      4         0.25
##  4 enterica Albany           0.015      4         0.25
##  5 enterica Albert           0.5        8         0.25
##  6 enterica Altona           0.015      4         0.25
##  7 enterica Anatum           0.015      0.25      0.25
##  8 enterica Arechavaleta     0.015      2         0.25
##  9 enterica Baildon          0.015      2         0.25
## 10 enterica Bareilly         0.015      2         0.25
## # … with 98 more rows
…
# There are too many columns to be useful, so let's reshape this table again
wides_res %>% pivot_longer(2:325) %>%
  separate(name,into=c("Rslt","Serotype")) %>%
  group_by(Serotype) %>% # now we need to recreate new columns with the MIC names
  mutate(row = row_number()) %>% # without this unique identifier, the values are lost somehow
  pivot_wider(names_from="Rslt",values_from="value") %>%
  select(-row) %>% arrange(Serotype) %>%
  # but now each antibiotic is separated between rows
  # We need to collapse these rows into 1 row while keeping the same columns
  group_by(Species,Serotype) %>% summarize(meanMICcip=sum(meanMICcip,na.rm=T),
                                   meanMICazm=sum(meanMICazm,na.rm=T),
                                   meanMICaxo=sum(meanMICaxo,na.rm=T))

## # A tibble: 94 x 5
## # Groups:   Species [1]
##    Species  Serotype     meanMICcip meanMICazm meanMICaxo
##    <fct>    <chr>             <dbl>      <dbl>      <dbl>
##  1 enterica Adelaide         0.112        3.6        0.25
##  2 enterica Agbeni           0.015        3.33       0.25
##  3 enterica Agona            0.0591       4.36       1.68
##  4 enterica Albany           0.015        4          0.25
##  5 enterica Albert           0.5          8          0.25
##  6 enterica Altona           0.015        4          0.25
##  7 enterica Anatum           0.128        3.56       6.37
##  8 enterica Arechavaleta     0.015        3          0.25
##  9 enterica Baildon          0.0500       2.67       0.25
## 10 enterica Bareilly         0.0444       4.47       0.25
## # … with 84 more rows
…
